…
``` r
flights %>% 
  transmute(dep_time,  #departure time 
            dep_hour = dep_time %/% 100,  #departure hour
         dep_minute = dep_time %% 100,    #departure minute
         dep_time_in_minutes = dep_hour * 60 + dep_minute,  #representation of departure time in minutes
         sched_dep_time,  #scheduled departure time
         sched_dep_hour = sched_dep_time %/% 100,   #scheduled departure hour
         sched_dep_minute = sched_dep_time %% 100,  #scheduled departure minute
         sched_dep_time_in_minutes = sched_dep_hour * 60 + sched_dep_minute)  #representation of scheduled departure time in minutes          
```

    ## # A tibble: 336,776 × 8
    ##    dep_time dep_hour dep_minute dep_time_in_mi…¹ sched…² sched…³ sched…⁴ sched…⁵
    ##       <int>    <dbl>      <dbl>            <dbl>   <int>   <dbl>   <dbl>   <dbl>
    ##  1      517        5         17              317     515       5      15     315
    ##  2      533        5         33              333     529       5      29     329
    ##  3      542        5         42              342     540       5      40     340
    ##  4      544        5         44              344     545       5      45     345
    ##  5      554        5         54              354     600       6       0     360
    ##  6      554        5         54              354     558       5      58     358
    ##  7      555        5         55              355     600       6       0     360
    ##  8      557        5         57              357     600       6       0     360
    ##  9      557        5         57              357     600       6       0     360
    ## 10      558        5         58              358     600       6       0     360
    ## # … with 336,766 more rows, and abbreviated variable names
    ## #   ¹​dep_time_in_minutes, ²​sched_dep_time, ³​sched_dep_hour, ⁴​sched_dep_minute,
    ## #   ⁵​sched_dep_time_in_minutes
…
